*** Darwin 19x20 ***
Turn = 0.
  01234567890123456789
0 ....................
1 ....................
2 ........r......f....
3 ......r............r
4 ....................
5 .............h....h.
6 ....f...............
7 .........t..........
8 ....t..............r
9 .....t..............
0 ....h...............
1 ....................
2 .....f..............
3 ....................
4 ....................
5 ....................
6 ....................
7 ............h.......
8 ...............rt...

Turn = 4.
  01234567890123456789
0 ...................r
1 ....................
2 ............r..f....
3 ....................
4 ....................
5 .................h.h
6 ....f...............
7 ......r..t..........
8 ....t..........r....
9 .....t..............
0 ....................
1 ....................
2 .....f..............
3 ....................
4 ....h..........r....
5 ....................
6 ....................
7 ....................
8 ............h...t...

Turn = 8.
  01234567890123456789
0 ....................
1 ...............r...r
2 ..............r.....
3 ....................
4 ....................
5 ..................hh
6 ....f...............
7 .........t..........
8 ....t......r........
9 .....t..............
0 ...............r....
1 ......r.............
2 .....f..............
3 ....................
4 ....................
5 ....................
6 ....................
7 ....................
8 ....h.......h...t...

Turn = 12.
  01234567890123456789
0 .............r......
1 ....................
2 ....................
3 ....................
4 ...................r
5 ..................hr
6 ....f.........rr....
7 .........t..........
8 ....t..r............
9 .....t..............
0 ....................
1 ....................
2 .....f..............
3 ....................
4 ....................
5 ......r.............
6 ....................
7 ....................
8 ....h.......h...t...

Turn = 16.
  01234567890123456789
0 .........r..........
1 ....................
2 ...............r....
3 ...................r
4 ................r...
5 ...................h
6 ....f...............
7 .........t..........
8 ....r...............
9 ....rt..............
0 ..............r.....
1 ....................
2 .....f..............
3 ....................
4 ....................
5 ....................
6 ....................
7 ....................
8 ....h.r.....h...t...

Turn = 20.
  01234567890123456789
0 .....r........r....r
1 ....................
2 ....................
3 ....................
4 ............r.......
5 ...................h
6 ....f...............
7 .........t..........
8 r...................
9 .....t..............
0 ....................
1 ....................
2 .....f..............
3 ....r...............
4 ..............r.....
5 ....................
6 ....................
7 .....r..............
8 ...r........h...t...

Turn = 24.
  01234567890123456789
0 .r........r....r....
1 ....................
2 ....................
3 ....................
4 ........r...........
5 ...................h
6 ....f...............
7 .........t..........
8 ....................
9 .....t..............
0 ....................
1 r...................
2 .....f..............
3 .....r..............
4 ....................
5 ....................
6 ....................
7 ....r...............
8 r...........h.r.t...

*** Darwin 27x19 ***
Turn = 0.
  0123456789012345678
0 ...................
1 ...................
2 ...................
3 ...................
4 ...................
5 ...................
6 ...................
7 ..........f........
8 ...................
9 ...................
0 ...................
1 ...................
2 ...................
3 .....f.............
4 ...................
5 ................r..
6 ...................
7 ....r..............
8 ...................
9 ...................
0 ..r................
1 ...................
2 ............f......
3 ...................
4 ...................
5 ...................
6 ...................

Turn = 1.
  0123456789012345678
0 ...................
1 ...................
2 ...................
3 ...................
4 ...................
5 ...................
6 ...................
7 ..........f........
8 ...................
9 ...................
0 ...................
1 ...................
2 ...................
3 .....f.............
4 ...................
5 .................r.
6 ...................
7 ...................
8 ....r..............
9 ...................
0 .r.................
1 ...................
2 ............f......
3 ...................
4 ...................
5 ...................
6 ...................

Turn = 2.
  0123456789012345678
0 ...................
1 ...................
2 ...................
3 ...................
4 ...................
5 ...................
6 ...................
7 ..........f........
8 ...................
9 ...................
0 ...................
1 ...................
2 ...................
3 .....f.............
4 ...................
5 ..................r
6 ...................
7 ...................
8 ...................
9 ....r..............
0 r..................
1 ...................
2 ............f......
3 ...................
4 ...................
5 ...................
6 ...................

Turn = 3.
  0123456789012345678
0 ...................
1 ...................
2 ...................
3 ...................
4 ...................
5 ...................
6 ...................
7 ..........f........
8 ...................
9 ...................
0 ...................
1 ...................
2 ...................
3 .....f.............
4 ...................
5 ..................r
6 ...................
7 ...................
8 ...................
9 ...................
0 r...r..............
1 ...................
2 ............f......
3 ...................
4 ...................
5 ...................
6 ...................

Turn = 4.
  0123456789012345678
0 ...................
1 ...................
2 ...................
3 ...................
4 ...................
5 ...................
6 ...................
7 ..........f........
8 ...................
9 ...................
0 ...................
1 ...................
2 ...................
3 .....f.............
4 ...................
5 ...................
6 ..................r
7 ...................
8 ...................
9 ...................
0 ...................
1 r...r..............
2 ............f......
3 ...................
4 ...................
5 ...................
6 ...................

Turn = 5.
  0123456789012345678
0 ...................
1 ...................
2 ...................
3 ...................
4 ...................
5 ...................
6 ...................
7 ..........f........
8 ...................
9 ...................
0 ...................
1 ...................
2 ...................
3 .....f.............
4 ...................
5 ...................
6 ...................
7 ..................r
8 ...................
9 ...................
0 ...................
1 ...................
2 r...r.......f......
3 ...................
4 ...................
5 ...................
6 ...................

Turn = 6.
  0123456789012345678
0 ...................
1 ...................
2 ...................
3 ...................
4 ...................
5 ...................
6 ...................
7 ..........f........
8 ...................
9 ...................
0 ...................
1 ...................
2 ...................
3 .....f.............
4 ...................
5 ...................
6 ...................
7 ...................
8 ..................r
9 ...................
0 ...................
1 ...................
2 ............f......
3 r...r..............
4 ...................
5 ...................
6 ...................

Turn = 7.
  0123456789012345678
0 ...................
1 ...................
2 ...................
3 ...................
4 ...................
5 ...................
6 ...................
7 ..........f........
8 ...................
9 ...................
0 ...................
1 ...................
2 ...................
3 .....f.............
4 ...................
5 ...................
6 ...................
7 ...................
8 ...................
9 ..................r
0 ...................
1 ...................
2 ............f......
3 ...................
4 r...r..............
5 ...................
6 ...................

Turn = 8.
  0123456789012345678
0 ...................
1 ...................
2 ...................
3 ...................
4 ...................
5 ...................
6 ...................
7 ..........f........
8 ...................
9 ...................
0 ...................
1 ...................
2 ...................
3 .....f.............
4 ...................
5 ...................
6 ...................
7 ...................
8 ...................
9 ...................
0 ..................r
1 ...................
2 ............f......
3 ...................
4 ...................
5 r...r..............
6 ...................

Turn = 9.
  0123456789012345678
0 ...................
1 ...................
2 ...................
3 ...................
4 ...................
5 ...................
6 ...................
7 ..........f........
8 ...................
9 ...................
0 ...................
1 ...................
2 ...................
3 .....f.............
4 ...................
5 ...................
6 ...................
7 ...................
8 ...................
9 ...................
0 ...................
1 ..................r
2 ............f......
3 ...................
4 ...................
5 ...................
6 r...r..............

Turn = 10.
  0123456789012345678
0 ...................
1 ...................
2 ...................
3 ...................
4 ...................
5 ...................
6 ...................
7 ..........f........
8 ...................
9 ...................
0 ...................
1 ...................
2 ...................
3 .....f.............
4 ...................
5 ...................
6 ...................
7 ...................
8 ...................
9 ...................
0 ...................
1 ...................
2 ............f.....r
3 ...................
4 ...................
5 ...................
6 r...r..............

Turn = 11.
  0123456789012345678
0 ...................
1 ...................
2 ...................
3 ...................
4 ...................
5 ...................
6 ...................
7 ..........f........
8 ...................
9 ...................
0 ...................
1 ...................
2 ...................
3 .....f.............
4 ...................
5 ...................
6 ...................
7 ...................
8 ...................
9 ...................
0 ...................
1 ...................
2 ............f......
3 ..................r
4 ...................
5 ...................
6 r..r...............

Turn = 12.
  0123456789012345678
0 ...................
1 ...................
2 ...................
3 ...................
4 ...................
5 ...................
6 ...................
7 ..........f........
8 ...................
9 ...................
0 ...................
1 ...................
2 ...................
3 .....f.............
4 ...................
5 ...................
6 ...................
7 ...................
8 ...................
9 ...................
0 ...................
1 ...................
2 ............f......
3 ...................
4 ..................r
5 r..................
6 ..r................

Turn = 13.
  0123456789012345678
0 ...................
1 ...................
2 ...................
3 ...................
4 ...................
5 ...................
6 ...................
7 ..........f........
8 ...................
9 ...................
0 ...................
1 ...................
2 ...................
3 .....f.............
4 ...................
5 ...................
6 ...................
7 ...................
8 ...................
9 ...................
0 ...................
1 ...................
2 ............f......
3 ...................
4 r..................
5 ..................r
6 .r.................

Turn = 14.
  0123456789012345678
0 ...................
1 ...................
2 ...................
3 ...................
4 ...................
5 ...................
6 ...................
7 ..........f........
8 ...................
9 ...................
0 ...................
1 ...................
2 ...................
3 .....f.............
4 ...................
5 ...................
6 ...................
7 ...................
8 ...................
9 ...................
0 ...................
1 ...................
2 ............f......
3 r..................
4 ...................
5 ...................
6 r.................r

Turn = 15.
  0123456789012345678
0 ...................
1 ...................
2 ...................
3 ...................
4 ...................
5 ...................
6 ...................
7 ..........f........
8 ...................
9 ...................
0 ...................
1 ...................
2 ...................
3 .....f.............
4 ...................
5 ...................
6 ...................
7 ...................
8 ...................
9 ...................
0 ...................
1 ...................
2 r...........f......
3 ...................
4 ...................
5 ...................
6 r.................r

Turn = 16.
  0123456789012345678
0 ...................
1 ...................
2 ...................
3 ...................
4 ...................
5 ...................
6 ...................
7 ..........f........
8 ...................
9 ...................
0 ...................
1 ...................
2 ...................
3 .....f.............
4 ...................
5 ...................
6 ...................
7 ...................
8 ...................
9 ...................
0 ...................
1 r..................
2 ............f......
3 ...................
4 ...................
5 r..................
6 ..................r

Turn = 17.
  0123456789012345678
0 ...................
1 ...................
2 ...................
3 ...................
4 ...................
5 ...................
6 ...................
7 ..........f........
8 ...................
9 ...................
0 ...................
1 ...................
2 ...................
3 .....f.............
4 ...................
5 ...................
6 ...................
7 ...................
8 ...................
9 ...................
0 r..................
1 ...................
2 ............f......
3 ...................
4 r..................
5 ..................r
6 ...................

Turn = 18.
  0123456789012345678
0 ...................
1 ...................
2 ...................
3 ...................
4 ...................
5 ...................
6 ...................
7 ..........f........
8 ...................
9 ...................
0 ...................
1 ...................
2 ...................
3 .....f.............
4 ...................
5 ...................
6 ...................
7 ...................
8 ...................
9 r..................
0 ...................
1 ...................
2 ............f......
3 r..................
4 ..................r
5 ...................
6 ...................

*** Darwin 27x22 ***
Turn = 0.
  0123456789012345678901
0 ......................
1 ......................
2 ......................
3 ......................
4 ......................
5 ......................
6 ...r......f...........
7 ....f.r...............
8 ......................
9 ......................
0 ......................
1 ...........h..........
2 ..t...................
3 .......f..............
4 ............f.........
5 ...................r..
6 ......................
7 ..........t...........
8 ......................
9 ......................
0 ......................
1 ......................
2 ............t.........
3 ....................h.
4 ............t....f....
5 ......................
6 ......................

Turn = 1.
  0123456789012345678901
0 ......................
1 ......................
2 ......................
3 ......................
4 ......................
5 ......................
6 ......r...f...........
7 ...rf.................
8 ......................
9 ......................
0 ...........h..........
1 ......................
2 ..t...................
3 .......f..............
4 ............f......r..
5 ......................
6 ......................
7 ..........t...........
8 ......................
9 ......................
0 ......................
1 ......................
2 ............t.........
3 ......................
4 ............t....f..h.
5 ......................
6 ......................

Turn = 2.
  0123456789012345678901
0 ......................
1 ......................
2 ......................
3 ......................
4 ......................
5 ......r...............
6 ..........f...........
7 ....f.................
8 ...r..................
9 ...........h..........
0 ......................
1 ......................
2 ..t...................
3 .......f...........r..
4 ............f.........
5 ......................
6 ......................
7 ..........t...........
8 ......................
9 ......................
0 ......................
1 ......................
2 ............t.........
3 ......................
4 ............t....f....
5 ....................h.
6 ......................

Turn = 3.
  0123456789012345678901
0 ......................
1 ......................
2 ......................
3 ......................
4 ......r...............
5 ......................
6 ..........f...........
7 ....f.................
8 ...........h..........
9 ...r..................
0 ......................
1 ......................
2 ..t................r..
3 .......f..............
4 ............f.........
5 ......................
6 ......................
7 ..........t...........
8 ......................
9 ......................
0 ......................
1 ......................
2 ............t.........
3 ......................
4 ............t....f....
5 ......................
6 ....................h.

Turn = 4.
  0123456789012345678901
0 ......................
1 ......................
2 ......................
3 ......r...............
4 ......................
5 ......................
6 ..........f...........
7 ....f......h..........
8 ......................
9 ......................
0 ...r..................
1 ...................r..
2 ..t...................
3 .......f..............
4 ............f.........
5 ......................
6 ......................
7 ..........t...........
8 ......................
9 ......................
0 ......................
1 ......................
2 ............t.........
3 ......................
4 ............t....f....
5 ......................
6 ....................h.

Turn = 5.
  0123456789012345678901
0 ......................
1 ......................
2 ......r...............
3 ......................
4 ......................
5 ......................
6 ..........fh..........
7 ....f.................
8 ......................
9 ......................
0 ...................r..
1 ...r..................
2 ..t...................
3 .......f..............
4 ............f.........
5 ......................
6 ......................
7 ..........t...........
8 ......................
9 ......................
0 ......................
1 ......................
2 ............t.........
3 ......................
4 ............t....f....
5 ......................
6 ....................h.

Turn = 6.
  0123456789012345678901
0 ......................
1 ......r...............
2 ......................
3 ......................
4 ......................
5 ...........h..........
6 ..........f...........
7 ....f.................
8 ......................
9 ...................r..
0 ......................
1 ......................
2 ..tr..................
3 .......f..............
4 ............f.........
5 ......................
6 ......................
7 ..........t...........
8 ......................
9 ......................
0 ......................
1 ......................
2 ............t.........
3 ......................
4 ............t....f....
5 ......................
6 ....................h.

Turn = 7.
  0123456789012345678901
0 ......r...............
1 ......................
2 ......................
3 ......................
4 ...........h..........
5 ......................
6 ..........f...........
7 ....f.................
8 ...................r..
9 ......................
0 ......................
1 ......................
2 ..t...................
3 ...r...f..............
4 ............f.........
5 ......................
6 ......................
7 ..........t...........
8 ......................
9 ......................
0 ......................
1 ......................
2 ............t.........
3 ......................
4 ............t....f....
5 ......................
6 ....................h.

Turn = 8.
  0123456789012345678901
0 ......r...............
1 ......................
2 ......................
3 ...........h..........
4 ......................
5 ......................
6 ..........f...........
7 ....f..............r..
8 ......................
9 ......................
0 ......................
1 ......................
2 ..t...................
3 .......f..............
4 ...r........f.........
5 ......................
6 ......................
7 ..........t...........
8 ......................
9 ......................
0 ......................
1 ......................
2 ............t.........
3 ......................
4 ............t....f....
5 ......................
6 ....................h.

Turn = 9.
  0123456789012345678901
0 .......r..............
1 ......................
2 ...........h..........
3 ......................
4 ......................
5 ......................
6 ..........f........r..
7 ....f.................
8 ......................
9 ......................
0 ......................
1 ......................
2 ..t...................
3 .......f..............
4 ............f.........
5 ...r..................
6 ......................
7 ..........t...........
8 ......................
9 ......................
0 ......................
1 ......................
2 ............t.........
3 ......................
4 ............t....f....
5 ......................
6 ....................h.

Turn = 10.
  0123456789012345678901
0 ........r.............
1 ...........h..........
2 ......................
3 ......................
4 ......................
5 ...................r..
6 ..........f...........
7 ....f.................
8 ......................
9 ......................
0 ......................
1 ......................
2 ..t...................
3 .......f..............
4 ............f.........
5 ......................
6 ...r..................
7 ..........t...........
8 ......................
9 ......................
0 ......................
1 ......................
2 ............t.........
3 ......................
4 ............t....f....
5 ......................
6 ....................h.

Turn = 11.
  0123456789012345678901
0 .........r.h..........
1 ......................
2 ......................
3 ......................
4 ...................r..
5 ......................
6 ..........f...........
7 ....f.................
8 ......................
9 ......................
0 ......................
1 ......................
2 ..t...................
3 .......f..............
4 ............f.........
5 ......................
6 ......................
7 ...r......t...........
8 ......................
9 ......................
0 ......................
1 ......................
2 ............t.........
3 ......................
4 ............t....f....
5 ......................
6 ....................h.

Turn = 12.
  0123456789012345678901
0 ..........rh..........
1 ......................
2 ......................
3 ...................r..
4 ......................
5 ......................
6 ..........f...........
7 ....f.................
8 ......................
9 ......................
0 ......................
1 ......................
2 ..t...................
3 .......f..............
4 ............f.........
5 ......................
6 ......................
7 ..........t...........
8 ...r..................
9 ......................
0 ......................
1 ......................
2 ............t.........
3 ......................
4 ............t....f....
5 ......................
6 ....................h.

Turn = 13.
  0123456789012345678901
0 ..........rr..........
1 ......................
2 ...................r..
3 ......................
4 ......................
5 ......................
6 ..........f...........
7 ....f.................
8 ......................
9 ......................
0 ......................
1 ......................
2 ..t...................
3 .......f..............
4 ............f.........
5 ......................
6 ......................
7 ..........t...........
8 ......................
9 ...r..................
0 ......................
1 ......................
2 ............t.........
3 ......................
4 ............t....f....
5 ......................
6 ....................h.

Turn = 14.
  0123456789012345678901
0 ..........rr..........
1 ...................r..
2 ......................
3 ......................
4 ......................
5 ......................
6 ..........f...........
7 ....f.................
8 ......................
9 ......................
0 ......................
1 ......................
2 ..t...................
3 .......f..............
4 ............f.........
5 ......................
6 ......................
7 ..........t...........
8 ......................
9 ......................
0 ...r..................
1 ......................
2 ............t.........
3 ......................
4 ............t....f....
5 ......................
6 ....................h.

Turn = 15.
  0123456789012345678901
0 ...........r.......r..
1 ..........r...........
2 ......................
3 ......................
4 ......................
5 ......................
6 ..........f...........
7 ....f.................
8 ......................
9 ......................
0 ......................
1 ......................
2 ..t...................
3 .......f..............
4 ............f.........
5 ......................
6 ......................
7 ..........t...........
8 ......................
9 ......................
0 ......................
1 ...r..................
2 ............t.........
3 ......................
4 ............t....f....
5 ......................
6 ....................h.

Turn = 16.
  0123456789012345678901
0 ............r......r..
1 ......................
2 ..........r...........
3 ......................
4 ......................
5 ......................
6 ..........f...........
7 ....f.................
8 ......................
9 ......................
0 ......................
1 ......................
2 ..t...................
3 .......f..............
4 ............f.........
5 ......................
6 ......................
7 ..........t...........
8 ......................
9 ......................
0 ......................
1 ......................
2 ...r........t.........
3 ......................
4 ............t....f....
5 ......................
6 ....................h.

Turn = 17.
  0123456789012345678901
0 .............r......r.
1 ......................
2 ......................
3 ..........r...........
4 ......................
5 ......................
6 ..........f...........
7 ....f.................
8 ......................
9 ......................
0 ......................
1 ......................
2 ..t...................
3 .......f..............
4 ............f.........
5 ......................
6 ......................
7 ..........t...........
8 ......................
9 ......................
0 ......................
1 ......................
2 ............t.........
3 ...r..................
4 ............t....f....
5 ......................
6 ....................h.

Turn = 18.
  0123456789012345678901
0 ..............r......r
1 ......................
2 ......................
3 ......................
4 ..........r...........
5 ......................
6 ..........f...........
7 ....f.................
8 ......................
9 ......................
0 ......................
1 ......................
2 ..t...................
3 .......f..............
4 ............f.........
5 ......................
6 ......................
7 ..........t...........
8 ......................
9 ......................
0 ......................
1 ......................
2 ............t.........
3 ......................
4 ...r........t....f....
5 ......................
6 ....................h.

Turn = 19.
  0123456789012345678901
0 ...............r.....r
1 ......................
2 ......................
3 ......................
4 ......................
5 ..........r...........
6 ..........f...........
7 ....f.................
8 ......................
9 ......................
0 ......................
1 ......................
2 ..t...................
3 .......f..............
4 ............f.........
5 ......................
6 ......................
7 ..........t...........
8 ......................
9 ......................
0 ......................
1 ......................
2 ............t.........
3 ......................
4 ............t....f....
5 ...r..................
6 ....................h.

Turn = 20.
  0123456789012345678901
0 ................r....r
1 ......................
2 ......................
3 ......................
4 ......................
5 ..........r...........
6 ...........r..........
7 ....f.................
8 ......................
9 ......................
0 ......................
1 ......................
2 ..t...................
3 .......f..............
4 ............f.........
5 ......................
6 ......................
7 ..........t...........
8 ......................
9 ......................
0 ......................
1 ......................
2 ............t.........
3 ......................
4 ............t....f....
5 ......................
6 ...r................h.

Turn = 21.
  0123456789012345678901
0 .................r..r.
1 ......................
2 ......................
3 ......................
4 ......................
5 ......................
6 ..........r.r.........
7 ....f.................
8 ......................
9 ......................
0 ......................
1 ......................
2 ..t...................
3 .......f..............
4 ............f.........
5 ......................
6 ......................
7 ..........t...........
8 ......................
9 ......................
0 ......................
1 ......................
2 ............t.........
3 ......................
4 ............t....f....
5 ......................
6 ...r................h.

Turn = 22.
  0123456789012345678901
0 ..................rr..
1 ......................
2 ......................
3 ......................
4 ......................
5 ......................
6 .............r........
7 ....f.....r...........
8 ......................
9 ......................
0 ......................
1 ......................
2 ..t...................
3 .......f..............
4 ............f.........
5 ......................
6 ......................
7 ..........t...........
8 ......................
9 ......................
0 ......................
1 ......................
2 ............t.........
3 ......................
4 ............t....f....
5 ......................
6 ..r.................h.

Turn = 23.
  0123456789012345678901
0 ..................rr..
1 ......................
2 ......................
3 ......................
4 ......................
5 ......................
6 ..............r.......
7 ....f.................
8 ..........r...........
9 ......................
0 ......................
1 ......................
2 ..t...................
3 .......f..............
4 ............f.........
5 ......................
6 ......................
7 ..........t...........
8 ......................
9 ......................
0 ......................
1 ......................
2 ............t.........
3 ......................
4 ............t....f....
5 ......................
6 .r..................h.

Turn = 24.
  0123456789012345678901
0 ......................
1 ..................rr..
2 ......................
3 ......................
4 ......................
5 ......................
6 ...............r......
7 ....f.................
8 ......................
9 ..........r...........
0 ......................
1 ......................
2 ..t...................
3 .......f..............
4 ............f.........
5 ......................
6 ......................
7 ..........t...........
8 ......................
9 ......................
0 ......................
1 ......................
2 ............t.........
3 ......................
4 ............t....f....
5 ......................
6 r...................h.

Turn = 25.
  0123456789012345678901
0 ......................
1 ......................
2 ..................rr..
3 ......................
4 ......................
5 ......................
6 ................r.....
7 ....f.................
8 ......................
9 ......................
0 ..........r...........
1 ......................
2 ..t...................
3 .......f..............
4 ............f.........
5 ......................
6 ......................
7 ..........t...........
8 ......................
9 ......................
0 ......................
1 ......................
2 ............t.........
3 ......................
4 ............t....f....
5 ......................
6 r...................h.

Turn = 26.
  0123456789012345678901
0 ......................
1 ......................
2 ......................
3 ..................rr..
4 ......................
5 ......................
6 .................r....
7 ....f.................
8 ......................
9 ......................
0 ......................
1 ..........r...........
2 ..t...................
3 .......f..............
4 ............f.........
5 ......................
6 ......................
7 ..........t...........
8 ......................
9 ......................
0 ......................
1 ......................
2 ............t.........
3 ......................
4 ............t....f....
5 r.....................
6 ....................h.

Turn = 27.
  0123456789012345678901
0 ......................
1 ......................
2 ......................
3 ......................
4 ..................rr..
5 ......................
6 ..................r...
7 ....f.................
8 ......................
9 ......................
0 ......................
1 ......................
2 ..t.......r...........
3 .......f..............
4 ............f.........
5 ......................
6 ......................
7 ..........t...........
8 ......................
9 ......................
0 ......................
1 ......................
2 ............t.........
3 ......................
4 r...........t....f....
5 ......................
6 ....................h.

Turn = 28.
  0123456789012345678901
0 ......................
1 ......................
2 ......................
3 ......................
4 ......................
5 ..................rr..
6 ...................r..
7 ....f.................
8 ......................
9 ......................
0 ......................
1 ......................
2 ..t...................
3 .......f..r...........
4 ............f.........
5 ......................
6 ......................
7 ..........t...........
8 ......................
9 ......................
0 ......................
1 ......................
2 ............t.........
3 r.....................
4 ............t....f....
5 ......................
6 ....................h.

Turn = 29.
  0123456789012345678901
0 ......................
1 ......................
2 ......................
3 ......................
4 ......................
5 ...................r..
6 ..................r.r.
7 ....f.................
8 ......................
9 ......................
0 ......................
1 ......................
2 ..t...................
3 .......f..............
4 ..........r.f.........
5 ......................
6 ......................
7 ..........t...........
8 ......................
9 ......................
0 ......................
1 ......................
2 r...........t.........
3 ......................
4 ............t....f....
5 ......................
6 ....................h.

*** Darwin 27x10 ***
Turn = 0.
  0123456789
0 ..........
1 h.........
2 ....f.....
3 ..........
4 ..........
5 ..........
6 ..........
7 ..........
8 .....h..r.
9 ..........
0 .......t..
1 h.........
2 .r........
3 ......r...
4 ..........
5 ..........
6 f....f....
7 ..........
8 ..........
9 ..........
0 ..r.......
1 ..........
2 ..........
3 ...t.f....
4 ..........
5 ..........
6 .......r..

Turn = 4.
  0123456789
0 h.........
1 ..........
2 ....f.....
3 ..........
4 ..........
5 ..........
6 ..........
7 h.........
8 ..........
9 ..........
0 r......t..
1 ..........
2 .....h..r.
3 .........r
4 ..........
5 ..........
6 f....f....
7 ..........
8 ..........
9 ..........
0 ..........
1 r.........
2 .......r..
3 ...t.f....
4 ..........
5 ..........
6 ..........

Turn = 8.
  0123456789
0 h.........
1 ..........
2 ....f.....
3 h.........
4 ..........
5 ..........
6 r.........
7 ..........
8 ..........
9 ..........
0 .......t..
1 ..........
2 ..........
3 ..........
4 ..........
5 .....h....
6 f....f..r.
7 .........r
8 .......r..
9 ..........
0 ..........
1 ..........
2 ..........
3 ...t.f....
4 ..........
5 r.........
6 ..........

Turn = 12.
  0123456789
0 h.........
1 h.........
2 r...f.....
3 ..........
4 ..........
5 ..........
6 ..........
7 ..........
8 ..........
9 ..........
0 .......t..
1 ..........
2 ..........
3 ..........
4 .......r..
5 .....h....
6 f....f....
7 ..........
8 ..........
9 ..........
0 ........r.
1 .........r
2 ..........
3 ...t.f....
4 ..........
5 r.........
6 ..........

Turn = 16.
  0123456789
0 r.........
1 r.........
2 ..r.f.....
3 ..........
4 ..........
5 ..........
6 ..........
7 ..........
8 ..........
9 ..........
0 .......r..
1 .......r..
2 ..........
3 ..........
4 ..........
5 .....h....
6 f....f....
7 ..........
8 ..........
9 ..........
0 ..........
1 r.........
2 ..........
3 ...t.f....
4 ........r.
5 .........r
6 ..........

*** Darwin 28x23 ***
Turn = 0.
  01234567890123456789012
0 .......................
1 .......................
2 .......................
3 ............t..........
4 .....r.................
5 .........tr............
6 .......................
7 .......................
8 .....r.................
9 .......................
0 .......................
1 .......................
2 .......................
3 ..............t...h....
4 .......................
5 .......................
6 .......................
7 .......................
8 .......................
9 ............t..r.......
0 .......................
1 .......r...............
2 .....r.................
3 t.t....................
4 ..............h.r......
5 ..h....................
6 .......................
7 .......................

Turn = 3.
  01234567890123456789012
0 .......................
1 .......................
2 .......................
3 ............t..........
4 ..r....................
5 .......................
6 .........rr............
7 .......................
8 ..r....................
9 .......................
0 .......................
1 .......................
2 .......................
3 ..............th.......
4 .......................
5 .......................
6 .......................
7 .......................
8 .......................
9 .....r......t.....r....
0 .......................
1 ................r......
2 .......................
3 t.t....................
4 .......r...h...........
5 .....h.................
6 .......................
7 .......................

Turn = 6.
  01234567890123456789012
0 .......................
1 .......................
2 .......................
3 ............t..........
4 r......................
5 .......................
6 .......................
7 .......................
8 r......................
9 .........rr............
0 .......................
1 .......................
2 .......................
3 ..............tt.......
4 .......................
5 .......................
6 .....r.................
7 .......................
8 ................r......
9 ............t........r.
0 .......................
1 .......................
2 .......................
3 t.t....................
4 ........h..............
5 .......h...............
6 .......................
7 .......r...............

Turn = 9.
  01234567890123456789012
0 .......................
1 r......................
2 .......................
3 ............t..........
4 .......................
5 r......................
6 .......................
7 .......................
8 .......................
9 .......................
0 .......................
1 .......................
2 .........rr............
3 .....r........tt.......
4 .......................
5 ................r......
6 .......................
7 .......................
8 .......................
9 ............t..........
0 ......................r
1 .......................
2 .......................
3 t.t....................
4 .....h.................
5 ..........h............
6 .......................
7 .....r.................

Turn = 12.
  01234567890123456789012
0 r......................
1 .......................
2 r......................
3 ............t..........
4 .......................
5 .......................
6 .......................
7 .......................
8 .......................
9 .......................
0 .....r.................
1 .......................
2 ................r......
3 ..............tt.......
4 .......................
5 .........rr............
6 .......................
7 .......................
8 .......................
9 ............t..........
0 .......................
1 .......................
2 .......................
3 t.t...................r
4 ..h....................
5 .............h.........
6 .......................
7 ..r....................

*** Darwin 20x13 ***
Turn = 0.
  0123456789012
0 .....h....h..
1 .............
2 .........r...
3 ....t........
4 .............
5 .............
6 .............
7 .............
8 .............
9 .............
0 .............
1 .............
2 ............h
3 .....r.......
4 .............
5 ...f...r.....
6 .............
7 r.......f....
8 .............
9 ...t.........

Turn = 5.
  0123456789012
0 ............h
1 .............
2 .............
3 ....tt......r
4 .............
5 .............
6 .............
7 ............h
8 .............
9 .............
0 .......r.....
1 .............
2 .............
3 .............
4 .............
5 ...f.........
6 .............
7 ....r...f....
8 .....r.......
9 ...t.........

Turn = 10.
  0123456789012
0 ............h
1 .............
2 .............
3 ....tt.......
4 .............
5 .......r...r.
6 .............
7 ............r
8 .............
9 .............
0 .............
1 .............
2 ....r........
3 .............
4 .............
5 ...f.........
6 .............
7 ........f....
8 .............
9 ...tt........

Turn = 15.
  0123456789012
0 .......r....h
1 .............
2 .............
3 ....tt.......
4 .............
5 ......r......
6 .............
7 ....r........
8 .............
9 .............
0 .............
1 .............
2 ............r
3 .............
4 .............
5 ...f.........
6 .............
7 ........f....
8 .............
9 ...tt........

Turn = 20.
  0123456789012
0 ...r........h
1 .............
2 .............
3 ....tt.......
4 .............
5 .r...........
6 .r...........
7 .............
8 .............
9 .............
0 .............
1 .............
2 .............
3 .............
4 .............
5 ...f.........
6 .............
7 ........f...r
8 .............
9 ...tt........

Turn = 25.
  0123456789012
0 r...........h
1 .............
2 r............
3 r...tt.......
4 .............
5 .............
6 .............
7 .............
8 .............
9 .............
0 .............
1 .............
2 .............
3 .............
4 .............
5 ...f.........
6 .............
7 ........f....
8 ............r
9 ...tt........

*** Darwin 25x28 ***
Turn = 0.
  0123456789012345678901234567
0 ......................h.....
1 .h..........................
2 ............................
3 .....................f......
4 ...........................r
5 ...........h................
6 ............................
7 ...............t.r..........
8 ............................
9 ............................
0 ............................
1 ............................
2 ............................
3 ............................
4 ........................f...
5 ................f...........
6 ............................
7 ...........f................
8 ............................
9 .............h..............
0 ..........................f.
1 ............................
2 .....................r......
3 .........................h..
4 ............................

Turn = 1.
  0123456789012345678901234567
0 ............................
1 ..h...................h.....
2 ............................
3 .....................f......
4 ...........h..............r.
5 ............................
6 ............................
7 ...............tr...........
8 ............................
9 ............................
0 ............................
1 ............................
2 ............................
3 ............................
4 ........................f...
5 ................f...........
6 ............................
7 ...........f................
8 ............................
9 ............h...............
0 ..........................f.
1 ............................
2 ....................r....h..
3 ............................
4 ............................

Turn = 2.
  0123456789012345678901234567
0 ............................
1 ...h........................
2 ......................h.....
3 ...........h.........f......
4 .........................r..
5 ............................
6 ............................
7 ...............rr...........
8 ............................
9 ............................
0 ............................
1 ............................
2 ............................
3 ............................
4 ........................f...
5 ................f...........
6 ............................
7 ...........f................
8 ............................
9 ...........h................
0 ..........................f.
1 .........................h..
2 ...................r........
3 ............................
4 ............................

Turn = 3.
  0123456789012345678901234567
0 ............................
1 ....h.......................
2 ...........h................
3 .....................fh.....
4 ........................r...
5 ............................
6 ............................
7 ...............r............
8 ...............r............
9 ............................
0 ............................
1 ............................
2 ............................
3 ............................
4 ........................f...
5 ................f...........
6 ............................
7 ...........f................
8 ............................
9 ..........h.................
0 .........................hf.
1 ............................
2 ..................r.........
3 ............................
4 ............................

Turn = 4.
  0123456789012345678901234567
0 ............................
1 .....h.....h................
2 ............................
3 .....................f......
4 ......................hr....
5 ............................
6 ............................
7 ..............r.............
8 ............................
9 ...............r............
0 ............................
1 ............................
2 ............................
3 ............................
4 ........................f...
5 ................f...........
6 ............................
7 ...........f................
8 ............................
9 .........h...............h..
0 ..........................f.
1 ............................
2 .................r..........
3 ............................
4 ............................

Turn = 5.
  0123456789012345678901234567
0 ...........h................
1 ......h.....................
2 ............................
3 .....................f......
4 ......................r.....
5 ......................h.....
6 ............................
7 .............r..............
8 ............................
9 ............................
0 ...............r............
1 ............................
2 ............................
3 ............................
4 ........................f...
5 ................f...........
6 ............................
7 ...........f................
8 .........................h..
9 ........h...................
0 ..........................f.
1 ............................
2 ................r...........
3 ............................
4 ............................

Turn = 6.
  0123456789012345678901234567
0 ...........h................
1 .......h....................
2 ............................
3 .....................f......
4 .....................r......
5 ............................
6 ......................h.....
7 ............r...............
8 ............................
9 ............................
0 ............................
1 ...............r............
2 ............................
3 ............................
4 ........................f...
5 ................f...........
6 ............................
7 ...........f.............h..
8 ............................
9 .......h....................
0 ..........................f.
1 ............................
2 ...............r............
3 ............................
4 ............................

Turn = 7.
  0123456789012345678901234567
0 ...........h................
1 ........h...................
2 ............................
3 .....................f......
4 ....................r.......
5 ............................
6 ............................
7 ...........r..........h.....
8 ............................
9 ............................
0 ............................
1 ............................
2 ...............r............
3 ............................
4 ........................f...
5 ................f...........
6 .........................h..
7 ...........f................
8 ............................
9 ......h.....................
0 ..........................f.
1 ............................
2 ..............r.............
3 ............................
4 ............................

Turn = 8.
  0123456789012345678901234567
0 ...........h................
1 .........h..................
2 ............................
3 .....................f......
4 ...................r........
5 ............................
6 ............................
7 ..........r.................
8 ......................h.....
9 ............................
0 ............................
1 ............................
2 ............................
3 ...............r............
4 ........................f...
5 ................f........h..
6 ............................
7 ...........f................
8 ............................
9 .....h......................
0 ..........................f.
1 ............................
2 .............r..............
3 ............................
4 ............................

Turn = 9.
  0123456789012345678901234567
0 ...........h................
1 ..........h.................
2 ............................
3 .....................f......
4 ..................r.........
5 ............................
6 ............................
7 .........r..................
8 ............................
9 ......................h.....
0 ............................
1 ............................
2 ............................
3 ............................
4 ...............r........fh..
5 ................f...........
6 ............................
7 ...........f................
8 ............................
9 ....h.......................
0 ..........................f.
1 ............................
2 ............r...............
3 ............................
4 ............................

Turn = 10.
  0123456789012345678901234567
0 ...........h................
1 ...........h................
2 ............................
3 .....................f......
4 .................r..........
5 ............................
6 ............................
7 ........r...................
8 ............................
9 ............................
0 ......................h.....
1 ............................
2 ............................
3 .........................h..
4 ........................f...
5 ...............rf...........
6 ............................
7 ...........f................
8 ............................
9 ...h........................
0 ..........................f.
1 ............................
2 ...........r................
3 ............................
4 ............................

Turn = 11.
  0123456789012345678901234567
0 ...........h................
1 ............h...............
2 ............................
3 .....................f......
4 ................r...........
5 ............................
6 ............................
7 .......r....................
8 ............................
9 ............................
0 ............................
1 ......................h.....
2 .........................h..
3 ............................
4 ........................f...
5 ................f...........
6 ...............r............
7 ...........f................
8 ............................
9 ..h.........................
0 ..........................f.
1 ............................
2 ..........r.................
3 ............................
4 ............................

Turn = 12.
  0123456789012345678901234567
0 ...........h................
1 .............h..............
2 ............................
3 .....................f......
4 ...............r............
5 ............................
6 ............................
7 ......r.....................
8 ............................
9 ............................
0 ............................
1 .........................h..
2 ......................h.....
3 ............................
4 ........................f...
5 ................f...........
6 ............................
7 ...........f...r............
8 ............................
9 .h..........................
0 ..........................f.
1 ............................
2 .........r..................
3 ............................
4 ............................

Turn = 13.
  0123456789012345678901234567
0 ...........h................
1 ..............h.............
2 ............................
3 .....................f......
4 ..............r.............
5 ............................
6 ............................
7 .....r......................
8 ............................
9 ............................
0 .........................h..
1 ............................
2 ............................
3 ......................h.....
4 ........................f...
5 ................f...........
6 ............................
7 ...........f................
8 ...............r............
9 h...........................
0 ..........................f.
1 ............................
2 ........r...................
3 ............................
4 ............................

Turn = 14.
  0123456789012345678901234567
0 ...........h................
1 ...............h............
2 ............................
3 .....................f......
4 .............r..............
5 ............................
6 ............................
7 ....r.......................
8 ............................
9 .........................h..
0 ............................
1 ............................
2 ............................
3 ............................
4 ......................h.f...
5 ................f...........
6 ............................
7 ...........f................
8 ............................
9 h..............r............
0 ..........................f.
1 ............................
2 .......r....................
3 ............................
4 ............................

Turn = 15.
  0123456789012345678901234567
0 ...........h................
1 ................h...........
2 ............................
3 .....................f......
4 ............r...............
5 ............................
6 ............................
7 ...r........................
8 .........................h..
9 ............................
0 ............................
1 ............................
2 ............................
3 ............................
4 ........................f...
5 ................f.....h.....
6 ............................
7 ...........f................
8 ............................
9 h...........................
0 ...............r..........f.
1 ............................
2 ......r.....................
3 ............................
4 ............................

Turn = 16.
  0123456789012345678901234567
0 ...........h................
1 .................h..........
2 ............................
3 .....................f......
4 ...........r................
5 ............................
6 ............................
7 ..r......................h..
8 ............................
9 ............................
0 ............................
1 ............................
2 ............................
3 ............................
4 ........................f...
5 ................f...........
6 ......................h.....
7 ...........f................
8 ............................
9 h...........................
0 ..........................f.
1 ...............r............
2 .....r......................
3 ............................
4 ............................

Turn = 17.
  0123456789012345678901234567
0 ...........h................
1 ..................h.........
2 ............................
3 .....................f......
4 ..........r.................
5 ............................
6 .........................h..
7 .r..........................
8 ............................
9 ............................
0 ............................
1 ............................
2 ............................
3 ............................
4 ........................f...
5 ................f...........
6 ............................
7 ...........f..........h.....
8 ............................
9 h...........................
0 ..........................f.
1 ............................
2 ....r..........r............
3 ............................
4 ............................

Turn = 18.
  0123456789012345678901234567
0 ...........h................
1 ...................h........
2 ............................
3 .....................f......
4 .........r..................
5 .........................h..
6 ............................
7 r...........................
8 ............................
9 ............................
0 ............................
1 ............................
2 ............................
3 ............................
4 ........................f...
5 ................f...........
6 ............................
7 ...........f................
8 ......................h.....
9 h...........................
0 ..........................f.
1 ............................
2 ...r........................
3 ...............r............
4 ............................

Turn = 19.
  0123456789012345678901234567
0 ...........h................
1 ....................h.......
2 ............................
3 .....................f......
4 ........r................h..
5 ............................
6 ............................
7 r...........................
8 ............................
9 ............................
0 ............................
1 ............................
2 ............................
3 ............................
4 ........................f...
5 ................f...........
6 ............................
7 ...........f................
8 ............................
9 h.....................h.....
0 ..........................f.
1 ............................
2 ..r.........................
3 ............................
4 ...............r............

*** Darwin 10x30 ***
Turn = 0.
  012345678901234567890123456789
0 ..h........t..................
1 ............r.................
2 ...........r..................
3 ..............................
4 ....t.........................
5 ..............................
6 ..............................
7 ..............................
8 ..............................
9 ...........r..................

Turn = 2.
  012345678901234567890123456789
0 ....h......t..................
1 ..............r...............
2 .........r....................
3 ..............................
4 ....t.........................
5 ..............................
6 ..............................
7 ...........r..................
8 ..............................
9 ..............................

Turn = 4.
  012345678901234567890123456789
0 ......h....t..................
1 ................r.............
2 .......r......................
3 ..............................
4 ....t.........................
5 ...........r..................
6 ..............................
7 ..............................
8 ..............................
9 ..............................

Turn = 6.
  012345678901234567890123456789
0 ........h..t..................
1 ..................r...........
2 .....r........................
3 ...........r..................
4 ....t.........................
5 ..............................
6 ..............................
7 ..............................
8 ..............................
9 ..............................

Turn = 8.
  012345678901234567890123456789
0 ..........ht..................
1 ...........r........r.........
2 ...r..........................
3 ..............................
4 ....t.........................
5 ..............................
6 ..............................
7 ..............................
8 ..............................
9 ..............................

Turn = 10.
  012345678901234567890123456789
0 ..........hr..................
1 ...........r..........r.......
2 .r............................
3 ..............................
4 ....t.........................
5 ..............................
6 ..............................
7 ..............................
8 ..............................
9 ..............................

Turn = 12.
  012345678901234567890123456789
0 ...........h.r................
1 .........r..............r.....
2 r.............................
3 ..............................
4 ....t.........................
5 ..............................
6 ..............................
7 ..............................
8 ..............................
9 ..............................

Turn = 14.
  012345678901234567890123456789
0 r............h.r..............
1 .......r..................r...
2 ..............................
3 ..............................
4 ....t.........................
5 ..............................
6 ..............................
7 ..............................
8 ..............................
9 ..............................

Turn = 16.
  012345678901234567890123456789
0 .r.............h.r............
1 .....r......................r.
2 ..............................
3 ..............................
4 ....t.........................
5 ..............................
6 ..............................
7 ..............................
8 ..............................
9 ..............................

Turn = 18.
  012345678901234567890123456789
0 ...r.............h.r..........
1 ...r.........................r
2 ..............................
3 ..............................
4 ....t.........................
5 ..............................
6 ..............................
7 ..............................
8 ..............................
9 ..............................

Turn = 20.
  012345678901234567890123456789
0 .....r.............h.r........
1 .r............................
2 ..............................
3 .............................r
4 ....t.........................
5 ..............................
6 ..............................
7 ..............................
8 ..............................
9 ..............................

Turn = 22.
  012345678901234567890123456789
0 .......r.............h.r......
1 r.............................
2 ..............................
3 ..............................
4 ....t.........................
5 .............................r
6 ..............................
7 ..............................
8 ..............................
9 ..............................

Turn = 24.
  012345678901234567890123456789
0 r........r.............h.r....
1 ..............................
2 ..............................
3 ..............................
4 ....t.........................
5 ..............................
6 ..............................
7 .............................r
8 ..............................
9 ..............................

Turn = 26.
  012345678901234567890123456789
0 ...........r.............h.r..
1 r.............................
2 ..............................
3 ..............................
4 ....t.........................
5 ..............................
6 ..............................
7 ..............................
8 ..............................
9 .............................r

*** Darwin 22x20 ***
Turn = 0.
  01234567890123456789
0 f...................
1 ....................
2 ....................
3 ......r.............
4 .........h..........
5 .......f............
6 ....................
7 ...............r....
8 .............r......
9 ....................
0 ....................
1 ....................
2 ...t................
3 ....................
4 ...............f....
5 ......t.............
6 .........h..........
7 ....................
8 ....................
9 ....................
0 ....................
1 .....r..............

Turn = 3.
  01234567890123456789
0 f...................
1 ....................
2 ....................
3 ...r................
4 ............h.......
5 .......f............
6 ....................
7 ..................r.
8 ..........r.........
9 ....................
0 ....................
1 ....................
2 ...t................
3 ....................
4 ...............f....
5 ......t.............
6 ....................
7 ....................
8 ....................
9 .........h..........
0 ....................
1 ...r................

Turn = 6.
  01234567890123456789
0 f...................
1 ....................
2 ....................
3 r...................
4 ...............h....
5 .......f............
6 ...................r
7 ....................
8 .......r............
9 ....................
0 ....................
1 ....................
2 ...t................
3 ....................
4 ...............f....
5 ......t.............
6 ....................
7 ....................
8 ....................
9 ....................
0 ....................
1 r........h..........

Turn = 9.
  01234567890123456789
0 f...................
1 r...................
2 ....................
3 ...................r
4 ..................h.
5 .......f............
6 ....................
7 ....................
8 ....r...............
9 ....................
0 ....................
1 ....................
2 ...t................
3 ....................
4 ...............f....
5 ......t.............
6 ....................
7 ....................
8 ....................
9 r...................
0 ....................
1 .........h..........

Turn = 12.
  01234567890123456789
0 r..................r
1 .r..................
2 ....................
3 ....................
4 ...................h
5 .......f............
6 ....................
7 ....................
8 .r..................
9 ....................
0 ....................
1 ....................
2 ...t................
3 ....................
4 ...............f....
5 ......t.............
6 r...................
7 ....................
8 ....................
9 ....................
0 ....................
1 .........h..........

Turn = 15.
  01234567890123456789
0 ....................
1 ....r..............r
2 r...................
3 ....................
4 ...................h
5 .......f............
6 ....................
7 ....................
8 ....................
9 r...................
0 ....................
1 ....................
2 ...t................
3 r...................
4 ...............f....
5 ......t.............
6 ....................
7 ....................
8 ....................
9 ....................
0 ....................
1 .........h..........

Turn = 18.
  01234567890123456789
0 ....................
1 .......r............
2 ....................
3 ...................r
4 ...................r
5 r......f............
6 ....................
7 ....................
8 ....................
9 ....................
0 ....................
1 r...................
2 .r.t................
3 ....................
4 ...............f....
5 ......t.............
6 ....................
7 ....................
8 ....................
9 ....................
0 ....................
1 .........h..........

*** Darwin 23x15 ***
Turn = 0.
  012345678901234
0 ...............
1 ...............
2 ...............
3 ...............
4 ...............
5 ...............
6 ...............
7 ...............
8 .h.....f.......
9 .......t....t..
0 ...............
1 ...............
2 ...............
3 ...............
4 ...............
5 ...............
6 ...............
7 ...............
8 ............f..
9 ...............
0 ....f..........
1 ...............
2 ...............

Turn = 4.
  012345678901234
0 ...............
1 ...............
2 ...............
3 ...............
4 .h.............
5 ...............
6 ...............
7 ...............
8 .......t.......
9 .......t....t..
0 ...............
1 ...............
2 ...............
3 ...............
4 ...............
5 ...............
6 ...............
7 ...............
8 ............f..
9 ...............
0 ....f..........
1 ...............
2 ...............

Turn = 8.
  012345678901234
0 .h.............
1 ...............
2 ...............
3 ...............
4 ...............
5 ...............
6 ...............
7 ...............
8 .......t.......
9 .......t....t..
0 ...............
1 ...............
2 ...............
3 ...............
4 ...............
5 ...............
6 ...............
7 ...............
8 ............f..
9 ...............
0 ....f..........
1 ...............
2 ...............

Turn = 12.
  012345678901234
0 .h.............
1 ...............
2 ...............
3 ...............
4 ...............
5 ...............
6 ...............
7 ...............
8 .......t.......
9 .......t....t..
0 ...............
1 ...............
2 ...............
3 ...............
4 ...............
5 ...............
6 ...............
7 ...............
8 ............f..
9 ...............
0 ....f..........
1 ...............
2 ...............

Turn = 16.
  012345678901234
0 .h.............
1 ...............
2 ...............
3 ...............
4 ...............
5 ...............
6 ...............
7 ...............
8 .......t.......
9 .......t....t..
0 ...............
1 ...............
2 ...............
3 ...............
4 ...............
5 ...............
6 ...............
7 ...............
8 ............f..
9 ...............
0 ....f..........
1 ...............
2 ...............

Turn = 20.
  012345678901234
0 .h.............
1 ...............
2 ...............
3 ...............
4 ...............
5 ...............
6 ...............
7 ...............
8 .......t.......
9 .......t....t..
0 ...............
1 ...............
2 ...............
3 ...............
4 ...............
5 ...............
6 ...............
7 ...............
8 ............f..
9 ...............
0 ....f..........
1 ...............
2 ...............

Turn = 24.
  012345678901234
0 .h.............
1 ...............
2 ...............
3 ...............
4 ...............
5 ...............
6 ...............
7 ...............
8 .......t.......
9 .......t....t..
0 ...............
1 ...............
2 ...............
3 ...............
4 ...............
5 ...............
6 ...............
7 ...............
8 ............f..
9 ...............
0 ....f..........
1 ...............
2 ...............

Turn = 28.
  012345678901234
0 .h.............
1 ...............
2 ...............
3 ...............
4 ...............
5 ...............
6 ...............
7 ...............
8 .......t.......
9 .......t....t..
0 ...............
1 ...............
2 ...............
3 ...............
4 ...............
5 ...............
6 ...............
7 ...............
8 ............f..
9 ...............
0 ....f..........
1 ...............
2 ...............

Turn = 32.
  012345678901234
0 .h.............
1 ...............
2 ...............
3 ...............
4 ...............
5 ...............
6 ...............
7 ...............
8 .......t.......
9 .......t....t..
0 ...............
1 ...............
2 ...............
3 ...............
4 ...............
5 ...............
6 ...............
7 ...............
8 ............f..
9 ...............
0 ....f..........
1 ...............
2 ...............

*** Darwin 23x21 ***
Turn = 0.
  012345678901234567890
0 .....................
1 ........h............
2 ..h..................
3 .....................
4 ......t..............
5 .....................
6 .....................
7 ..................f..
8 .....................
9 .....................
0 .............f.......
1 .....................
2 .....................
3 .......f.............
4 .....................
5 ..........t..........
6 .....................
7 ....................f
8 .....................
9 .....................
0 ..............r......
1 .................r...
2 .....................

Turn = 1.
  012345678901234567890
0 .....................
1 .......h.............
2 .....................
3 ..h..................
4 ......t..............
5 .....................
6 .....................
7 ..................f..
8 .....................
9 .....................
0 .............f.......
1 .....................
2 .....................
3 .......f.............
4 .....................
5 ..........t..........
6 .....................
7 ....................f
8 .....................
9 .....................
0 ...............r.....
1 .....................
2 .................r...

Turn = 2.
  012345678901234567890
0 .....................
1 ......h..............
2 .....................
3 .....................
4 ..h...t..............
5 .....................
6 .....................
7 ..................f..
8 .....................
9 .....................
0 .............f.......
1 .....................
2 .....................
3 .......f.............
4 .....................
5 ..........t..........
6 .....................
7 ....................f
8 .....................
9 .....................
0 ................r....
1 .....................
2 .................r...

Turn = 3.
  012345678901234567890
0 .....................
1 .....h...............
2 .....................
3 .....................
4 ......t..............
5 ..h..................
6 .....................
7 ..................f..
8 .....................
9 .....................
0 .............f.......
1 .....................
2 .....................
3 .......f.............
4 .....................
5 ..........t..........
6 .....................
7 ....................f
8 .....................
9 .....................
0 .................r...
1 .....................
2 ................r....

Turn = 4.
  012345678901234567890
0 .....................
1 ....h................
2 .....................
3 .....................
4 ......t..............
5 .....................
6 ..h..................
7 ..................f..
8 .....................
9 .....................
0 .............f.......
1 .....................
2 .....................
3 .......f.............
4 .....................
5 ..........t..........
6 .....................
7 ....................f
8 .....................
9 .....................
0 ..................r..
1 .....................
2 ...............r.....

Turn = 5.
  012345678901234567890
0 .....................
1 ...h.................
2 .....................
3 .....................
4 ......t..............
5 .....................
6 .....................
7 ..h...............f..
8 .....................
9 .....................
0 .............f.......
1 .....................
2 .....................
3 .......f.............
4 .....................
5 ..........t..........
6 .....................
7 ....................f
8 .....................
9 .....................
0 ...................r.
1 .....................
2 ..............r......

Turn = 6.
  012345678901234567890
0 .....................
1 ..h..................
2 .....................
3 .....................
4 ......t..............
5 .....................
6 .....................
7 ..................f..
8 ..h..................
9 .....................
0 .............f.......
1 .....................
2 .....................
3 .......f.............
4 .....................
5 ..........t..........
6 .....................
7 ....................f
8 .....................
9 .....................
0 ....................r
1 .....................
2 .............r.......

Turn = 7.
  012345678901234567890
0 .....................
1 .h...................
2 .....................
3 .....................
4 ......t..............
5 .....................
6 .....................
7 ..................f..
8 .....................
9 ..h..................
0 .............f.......
1 .....................
2 .....................
3 .......f.............
4 .....................
5 ..........t..........
6 .....................
7 ....................f
8 .....................
9 .....................
0 ....................r
1 .....................
2 ............r........

Turn = 8.
  012345678901234567890
0 .....................
1 h....................
2 .....................
3 .....................
4 ......t..............
5 .....................
6 .....................
7 ..................f..
8 .....................
9 .....................
0 ..h..........f.......
1 .....................
2 .....................
3 .......f.............
4 .....................
5 ..........t..........
6 .....................
7 ....................f
8 .....................
9 ....................r
0 .....................
1 .....................
2 ...........r.........

Turn = 9.
  012345678901234567890
0 .....................
1 h....................
2 .....................
3 .....................
4 ......t..............
5 .....................
6 .....................
7 ..................f..
8 .....................
9 .....................
0 .............f.......
1 ..h..................
2 .....................
3 .......f.............
4 .....................
5 ..........t..........
6 .....................
7 ....................f
8 ....................r
9 .....................
0 .....................
1 .....................
2 ..........r..........

Turn = 10.
  012345678901234567890
0 .....................
1 h....................
2 .....................
3 .....................
4 ......t..............
5 .....................
6 .....................
7 ..................f..
8 .....................
9 .....................
0 .............f.......
1 .....................
2 ..h..................
3 .......f.............
4 .....................
5 ..........t..........
6 .....................
7 ....................r
8 ....................r
9 .....................
0 .....................
1 .....................
2 .........r...........

Turn = 11.
  012345678901234567890
0 .....................
1 h....................
2 .....................
3 .....................
4 ......t..............
5 .....................
6 .....................
7 ..................f..
8 .....................
9 .....................
0 .............f.......
1 .....................
2 .....................
3 ..h....f.............
4 .....................
5 ..........t..........
6 ....................r
7 ....................r
8 .....................
9 .....................
0 .....................
1 .....................
2 ........r............

Turn = 12.
  012345678901234567890
0 .....................
1 h....................
2 .....................
3 .....................
4 ......t..............
5 .....................
6 .....................
7 ..................f..
8 .....................
9 .....................
0 .............f.......
1 .....................
2 .....................
3 .......f.............
4 ..h..................
5 ..........t.........r
6 ....................r
7 .....................
8 .....................
9 .....................
0 .....................
1 .....................
2 .......r.............

*** Darwin 19x29 ***
Turn = 0.
  01234567890123456789012345678
0 .............................
1 ............................r
2 ...r..t......................
3 ..........f..................
4 .............................
5 .............................
6 .............................
7 .............................
8 ....t........................
9 ................h............
0 ..........h..................
1 .............................
2 .............................
3 ...h.........................
4 .............................
5 ....h........................
6 .............................
7 .............................
8 .............................

Turn = 6.
  01234567890123456789012345678
0 .............................
1 ............................r
2 .....tt......................
3 ..........f..................
4 .............................
5 .............................
6 .............................
7 .............................
8 ....t........................
9 .............................
0 .............................
1 .............................
2 .............................
3 h............................
4 .............................
5 .........h......h............
6 ..........h..................
7 .............................
8 .............................

Turn = 12.
  01234567890123456789012345678
0 .............................
1 .............................
2 .....tt......................
3 ..........f..................
4 .............................
5 .............................
6 .............................
7 ............................r
8 ....t........................
9 .............................
0 .............................
1 .............................
2 .............................
3 h............................
4 .............................
5 ...............h.............
6 .............................
7 .............................
8 ..........h.....h............

Turn = 18.
  01234567890123456789012345678
0 .............................
1 .............................
2 .....tt......................
3 ..........f..................
4 .............................
5 .............................
6 .............................
7 .............................
8 ....t........................
9 .............................
0 .............................
1 .............................
2 .............................
3 h...........................r
4 .............................
5 .....................h.......
6 .............................
7 .............................
8 ..........h.....h............

Turn = 24.
  01234567890123456789012345678
0 .............................
1 .............................
2 .....tt......................
3 ..........f..................
4 .............................
5 .............................
6 .............................
7 .............................
8 ....t........................
9 .............................
0 .............................
1 .............................
2 .............................
3 h............................
4 .............................
5 ...........................h.
6 .............................
7 .............................
8 ..........h.....h...........r

Turn = 30.
  01234567890123456789012345678
0 .............................
1 .............................
2 .....tt......................
3 ..........f..................
4 .............................
5 .............................
6 .............................
7 .............................
8 ....t........................
9 .............................
0 .............................
1 .............................
2 .............................
3 h............................
4 .............................
5 ............................h
6 .............................
7 .............................
8 ..........h.....h.....r......

*** Darwin 21x11 ***
Turn = 0.
  01234567890
0 ........r..
1 ...........
2 .......r...
3 ...........
4 ...........
5 ........t..
6 ...........
7 ...........
8 ...........
9 ...........
0 ...........
1 .....t.r...
2 ...........
3 ...........
4 ...........
5 ...........
6 ...........
7 ...........
8 ...........
9 ...........
0 ...........

Turn = 3.
  01234567890
0 .....r.....
1 ...........
2 ..........r
3 ...........
4 ...........
5 ........t..
6 ...........
7 ...........
8 ...........
9 ...........
0 ...........
1 .....r.....
2 .....r.....
3 ...........
4 ...........
5 ...........
6 ...........
7 ...........
8 ...........
9 ...........
0 ...........

Turn = 6.
  01234567890
0 ..r........
1 ...........
2 ...........
3 ...........
4 ..........r
5 ........t..
6 ...........
7 ...........
8 ...........
9 ...........
0 ...........
1 ..r........
2 ...........
3 ...........
4 ...........
5 .....r.....
6 ...........
7 ...........
8 ...........
9 ...........
0 ...........

Turn = 9.
  01234567890
0 r..........
1 ...........
2 ...........
3 ...........
4 ...........
5 ........t..
6 ...........
7 ..........r
8 ...........
9 ...........
0 ...........
1 r..........
2 ...........
3 ...........
4 ...........
5 ...........
6 ...........
7 ...........
8 .....r.....
9 ...........
0 ...........

Turn = 12.
  01234567890
0 ...........
1 ...........
2 ...........
3 r..........
4 ...........
5 ........t..
6 ...........
7 ...........
8 r..........
9 ...........
0 ..........r
1 ...........
2 ...........
3 ...........
4 ...........
5 ...........
6 ...........
7 ...........
8 ...........
9 ...........
0 .....r.....

Turn = 15.
  01234567890
0 ...........
1 ...........
2 ...........
3 ...........
4 ...........
5 r.......t..
6 r..........
7 ...........
8 ...........
9 ...........
0 ...........
1 ...........
2 ...........
3 ..........r
4 ...........
5 ...........
6 ...........
7 ...........
8 ...........
9 ...........
0 ..r........

Turn = 18.
  01234567890
0 ...........
1 ...........
2 ...........
3 ...........
4 ...........
5 ........t..
6 ...r.......
7 r..........
8 ...........
9 ...........
0 ...........
1 ...........
2 ...........
3 ...........
4 ...........
5 ...........
6 ..........r
7 ...........
8 ...........
9 ...........
0 r..........

Turn = 21.
  01234567890
0 ...........
1 ...........
2 ...........
3 ...........
4 ...........
5 ........t..
6 ......r....
7 ...........
8 ...........
9 ...........
0 r..........
1 ...........
2 ...........
3 ...........
4 ...........
5 ...........
6 ...........
7 ...........
8 ...........
9 r.........r
0 ...........

Turn = 24.
  01234567890
0 ...........
1 ...........
2 ...........
3 ...........
4 ...........
5 ........t..
6 ........t..
7 ...........
8 ...........
9 ...........
0 ...........
1 ...........
2 ...........
3 r..........
4 ...........
5 ...........
6 r..........
7 ...........
8 ...........
9 ...........
0 ..........r

Turn = 27.
  01234567890
0 ...........
1 ...........
2 ...........
3 ...........
4 ...........
5 ........t..
6 ........t..
7 ...........
8 ...........
9 ...........
0 ...........
1 ...........
2 ...........
3 ...........
4 r..........
5 .r.........
6 ...........
7 ...........
8 ...........
9 ..........r
0 ...........

Turn = 30.
  01234567890
0 ...........
1 ...........
2 ...........
3 ...........
4 ...........
5 ........t..
6 ........t..
7 ...........
8 ...........
9 ...........
0 ...........
1 ...........
2 ...........
3 ...........
4 ...........
5 ....r......
6 ..........r
7 r..........
8 ...........
9 ...........
0 ...........

Turn = 33.
  01234567890
0 ...........
1 ...........
2 ...........
3 ...........
4 ...........
5 ........t..
6 ........t..
7 ...........
8 ...........
9 ...........
0 ...........
1 ...........
2 ...........
3 ..........r
4 ...........
5 .......r...
6 ...........
7 ...........
8 ...........
9 ...........
0 r..........
